{
  "payload": [
    {
      "id": 1,
      "userId": 2,
      "name": "Paolo",
      "surname": "Acquaviva",
      "age": 30,
      "nationality": "IT",
      "description": "Analista sviluppatore",
      "gender": "M",
      "dateRegistered": "2016/08/20 16:43:39:463",
      "deleted": false,
      "pictureBook": "2016_08_20__16_43_39_463",
      "albums": [
        {
          "test": []
        },  
        {
          "test copia": [
            "2016_08_20__17_09_28_952",
            "2016_08_20__21_47_32_985"
          ]
        }
      ],
      "new": false
    }
  ],
  "status": "200",
  "msg": "MODEL DELETE SUCCESSFUL"
}