{
  "payload": [
    {
      "id": 5,
      "userId": 2,
      "album": null,
      "fileName": "2016_08_20__14_09_02_616",
      "data": "/9j/4AAQS+0V/79H/GiinGhDsP28+5/9k="
    }
  ],
  "status": "200",
  "msg": "PICTUREBOOK READ SUCCESSFUL"
}