{
  "payload": [
    {
      "id": 1,
      "name": "paolo",
      "surname": "acquaviva",
      "vatCode": "",
      "taxCode": "CQVPLA85P28A225O",
      "password": "",
      "email": "root",
      "dateRegistered": "2016/08/20 12:26:05",
      "deleted": false,
      "role": "ROLE_USER",
      "new": false
    }
  ],
  "status": "200",
  "msg": "USER EMAIL READ SUCCESSFUL"
}