{  
  "payload":[  
     {  
        "id":7,
        "userId":2,
        "album":"test",
        "fileName":"2017_09_05__11_27_09_51",
        "data":"/9j/4AAQSkZJRgABAQEASABIAAD/2wBDAAIBAQEBAQIBAQECAgICAgQDAgICAgUEBAMEBgUGBgYFBgYGBwkIBgcJBwYGCAsICQoKCgoKBggLDAs="
     }
  ],
  "status":"200",
  "msg":"PICTUREBOOK SAVE SUCCESSFUL"
}