{
  "payload": [
    {
      "id": 5,
      "userId": 2,
      "name": "Mic",
      "surname": "Acquaviva",
      "age": 25,
      "nationality": "IT",
      "description": "Mago",
      "gender": "M",
      "dateRegistered": "2016/08/20 14:09:02:616",
      "deleted": false,
      "pictureBook": "2016_08_20__14_09_02_616",
      "albums": [],
      "new": false
    }
  ],
  "status": "200",
  "msg": "MODEL SAVE SUCCESSFUL"
}